{
  "project_info": {
    "project_number": "401986788036",
    "firebase_url": "https://workshop-3-android-default-rtdb.firebaseio.com",
    "project_id": "workshop-3-android",
    "storage_bucket": "workshop-3-android.appspot.com"
  },
  "client": [
    {
      "client_info": {
        "mobilesdk_app_id": "1:401986788036:android:f9420f317059088f968791",
        "android_client_info": {
          "package_name": "com.example.databaseapp"
        }
      },
      "oauth_client": [
        {
          "client_id": "401986788036-7aculprucr6770ghgrsdf2a9c8kfv7gl.apps.googleusercontent.com",
          "client_type": 1,
          "android_info": {
            "package_name": "com.example.databaseapp",
            "certificate_hash": "825843a241f107c88a92f8303d296b5a038ed82b"
          }
        },
        {
          "client_id": "401986788036-hd9tjjavfuqk6m1mve964vmuanmv4he0.apps.googleusercontent.com",
          "client_type": 3
        }
      ],
      "api_key": [
        {
          "current_key": "AIzaSyABsnwW4neHGhLcMBfjdUJLHCuYIIJJzTA"
        }
      ],
      "services": {
        "appinvite_service": {
          "other_platform_oauth_client": [
            {
              "client_id": "401986788036-hd9tjjavfuqk6m1mve964vmuanmv4he0.apps.googleusercontent.com",
              "client_type": 3
            }
          ]
        }
      }
    }
  ],
  "configuration_version": "1"
}